<svg viewBox="0 0 8 12" fill="none" xmlns="http://www.w3.org/2000/svg">
    <path d="M4.97668 5.99999L0.851685 1.87499L2.03002 0.696655L7.33335 5.99999L2.03002 11.3033L0.851685 10.125L4.97668 5.99999Z" fill="#000"/>
</svg>
